0 1
0(f0){
  1(f0){
    2(d1)
  }
}
4(d1)
5(d1){
  6(r)}
7(r){
  8(f0){
    9(f0){
      10(f0){
        11(r){
          12(f0){
            13(r){
              14(f0){
                15(d1)
              }
            }
          }
        }
      }
      16(f0){
        17(f0){
          18(m){
            19(r){
              20(r){
                21(m){
                  22(f0){
                    23(d2)
                  }
                }
              }
            }
          }
        }
      }
      24(f0){
        25(r){
          26(d1){
            27(f0){
              28(f0){
                29(d1){
                  30(r)
                }
              }
            }
          }
        }
        31(f0){
          32(f0){
            33(f0){
              34(f0){
                35(f0){
                  36(f0){
                    37(*)
                  }
                }
              }
            }
          }
        }
      }
    }
  }
}