{
  "dw": "C:/Users/User/Downloads",
  "projects": "C:/Projects",
  "node": "C:/Projects/JavaScript",
  "web": "C:/Projects/web",
  "O": "C:/Projects/web/omikron.js",
  "img": "C:/Projects/web/projects/image",
  "vid": "C:/Projects/web/projects/video",
  "temp": "C:/Users/User/AppData/Local/Temp",
  "encrypted": "C:/Projects/Encrypted",
  "render": "D:/Render"
}