{
  "text": [
    "gyp",
    "yml",
    "yaml",
    
    "txt",
    "md",

    "js",
    "json",
    "htm",
    "html",
    "css",
    "php",

    "c",
    "h",
    "cc",
    "cpp",

    "java",
    "ahk",

    "hs",
    "sh",
    "bat",
    "glsl",
    "z3",
    "lean"
  ],
  
  "bin": [
    "png",
    "hex"
  ]
}